3 Ejercicio 1 (tidyr y dplyr) – Problemas de Inferencia Estadística
…
# Obtener la media y el maximo de asientos ("seats") que tienen los aviones. 
# Utilizar el operador tuberia %>%.
planes_simple %>% summarise(mean = mean(seats),max_engines = max(seats))

# A tibble: 1 × 2
   mean max_engines
  <dbl>       <int>
1  105.         330

# Ordenar los aviones por numero de motores ("engines") y numero de asientos ("seats").
result1 <- arrange(planes_simple,engines,seats)
print(result1)

# A tibble: 100 × 9
   tailnum  year type              manufacturer model engines seats speed engine
   <chr>   <int> <chr>             <chr>        <chr>   <int> <int> <int> <chr> 
 1 N10156   2004 Fixed wing multi… EMBRAER      EMB-…       2    55    NA Turbo…
 2 N10575   2002 Fixed wing multi… EMBRAER      EMB-…       2    55    NA Turbo…
 3 N11106   2002 Fixed wing multi… EMBRAER      EMB-…       2    55    NA Turbo…
 4 N11107   2002 Fixed wing multi… EMBRAER      EMB-…       2    55    NA Turbo…
 5 N11109   2002 Fixed wing multi… EMBRAER      EMB-…       2    55    NA Turbo…
 6 N11113   2002 Fixed wing multi… EMBRAER      EMB-…       2    55    NA Turbo…
 7 N11119   2002 Fixed wing multi… EMBRAER      EMB-…       2    55    NA Turbo…
 8 N11121   2003 Fixed wing multi… EMBRAER      EMB-…       2    55    NA Turbo…
 9 N11127   2003 Fixed wing multi… EMBRAER      EMB-…       2    55    NA Turbo…
10 N11137   2003 Fixed wing multi… EMBRAER      EMB-…       2    55    NA Turbo…
# ℹ 90 more rows
…
[1] "EMB-145XR" "A320-214"  "EMB-145LR" "737-824"   "767-332"   "757-224"  

# Crea una nueva variable que calcule el retraso total sumando los
# delays acumulados ("dep_delay") y ("arr_delay").
# Almacena el dataframe resultante en "flights_total".
flights_total <- mutate(flights_simple,total_delay=dep_delay+arr_delay)

# En base a la variable anteriormente obtenida, devuelve los aviones que 
# han llegado con antelación a su destino.
filter(flights_total,total_delay < 0)

# A tibble: 57 × 20
    year month   day dep_time sched_dep_time dep_delay arr_time sched_arr_time
   <int> <int> <int>    <int>          <int>     <dbl>    <int>          <int>
 1  2013     1     1      544            545        -1     1004           1022
 2  2013     1     1      554            600        -6      812            837
 3  2013     1     1      557            600        -3      709            723
 4  2013     1     1      557            600        -3      838            846
 5  2013     1     1      558            600        -2      849            851
 6  2013     1     1      558            600        -2      853            856
 7  2013     1     1      558            600        -2      923            937
 8  2013     1     1      559            559         0      702            706
 9  2013     1     1      559            600        -1      854            902
10  2013     1     1      600            600         0      851            858
# ℹ 47 more rows
# ℹ 12 more variables: arr_delay <dbl>, carrier <chr>, flight <int>,
#   tailnum <chr>, origin <chr>, dest <chr>, air_time <dbl>, distance <dbl>,
#   hour <dbl>, minute <dbl>, time_hour <dttm>, total_delay <dbl>
