Práctica 1: Estadística descriptiva
…
  mutate(Intervalo = cut(PRICE, breaks = intervalos, right = FALSE)) %>%
  group_by(Intervalo) %>%
  summarise(n = sum(n), 
            f = sum(f), 
            N = sum(n), 
            F = sum(f))
for (i in 2:nrow(tabla_frecuencias_price)) {
  tabla_frecuencias_price$N[i] <- tabla_frecuencias_price$N[i] + tabla_frecuencias_price$N[i - 1]
  tabla_frecuencias_price$F[i] <- tabla_frecuencias_price$F[i] + tabla_frecuencias_price$F[i - 1]
}
tabla_frecuencias_ordenada4 <- tabla_frecuencias_price %>%
  arrange(Intervalo)
print(tabla_frecuencias_ordenada4)

## # A tibble: 170 × 5
##    Intervalo         n       f     N       F
##    <fct>         <int>   <dbl> <int>   <dbl>
##  1 [0,1e+05)        18 0.00375    18 0.00375
##  2 [1e+05,2e+05)   158 0.0329    176 0.0367 
##  3 [2e+05,3e+05)   401 0.0835    577 0.120  
##  4 [3e+05,4e+05)   368 0.0767    945 0.197  
##  5 [4e+05,5e+05)   302 0.0629   1247 0.260  
##  6 [5e+05,6e+05)   363 0.0756   1610 0.335  
##  7 [6e+05,7e+05)   390 0.0812   2000 0.417  
##  8 [7e+05,8e+05)   359 0.0748   2359 0.491  
##  9 [8e+05,9e+05)   303 0.0631   2662 0.554  
## 10 [9e+05,1e+06)   298 0.0621   2960 0.617  
## # ℹ 160 more rows
…
  mutate(Intervalo = cut(PROPERTYSQFT, breaks = intervalos2, right = FALSE)) %>%
  group_by(Intervalo) %>%
  summarise(n = sum(n), 
            f = sum(f), 
            N = sum(n), 
            F = sum(f))
for (i in 2:nrow(tabla_frecuencias_propertysqft)) {
  tabla_frecuencias_propertysqft$N[i] <- tabla_frecuencias_propertysqft$N[i] + tabla_frecuencias_propertysqft$N[i - 1]
  tabla_frecuencias_propertysqft$F[i] <- tabla_frecuencias_propertysqft$F[i] + tabla_frecuencias_propertysqft$F[i - 1]
}
tabla_frecuencias_ordenada_propertysqft <- tabla_frecuencias_propertysqft %>%
  arrange(Intervalo)
print(tabla_frecuencias_ordenada_propertysqft)

## # A tibble: 59 × 5
##    Intervalo               n       f     N       F
##    <fct>               <int>   <dbl> <int>   <dbl>
##  1 [0,330)                12 0.00250    12 0.00250
##  2 [330,660)             223 0.0464    235 0.0489 
##  3 [660,990)             606 0.126     841 0.175  
##  4 [990,1.32e+03)        539 0.112    1380 0.287  
##  5 [1.32e+03,1.65e+03)   355 0.0739   1735 0.361  
##  6 [1.65e+03,1.98e+03)   312 0.0650   2047 0.426  
##  7 [1.98e+03,2.31e+03)  1878 0.391    3925 0.818  
##  8 [2.31e+03,2.64e+03)   155 0.0323   4080 0.850  
##  9 [2.64e+03,2.97e+03)   120 0.0250   4200 0.875  
## 10 [2.97e+03,3.3e+03)    111 0.0231   4311 0.898  
## # ℹ 49 more rows
…
